vcd/microwave.vcd
$date
	Fri Apr 30 01:09:30 2021
$end
$version
	Icarus Verilog
$end
$timescale
	1ns
$end
$scope module tb_microwave $end
$var wire 1 ! timer_done $end
$var wire 7 " tens [6:0] $end
$var wire 7 # ones [6:0] $end
$var wire 7 $ mins [6:0] $end
$var wire 1 % mag $end
$var reg 1 & clearn $end
$var reg 1 ' clk $end
$var reg 1 ( door_closed $end
$var reg 10 ) key [9:0] $end
$var reg 1 * startn $end
$var reg 1 + stopn $end
$var integer 32 , ticks [31:0] $end
$scope module m $end
$var wire 1 & clearn $end
$var wire 1 ' clk $end
$var wire 1 - clrn $end
$var wire 1 ( door_closed $end
$var wire 10 . keypad [9:0] $end
$var wire 1 * startn $end
$var wire 1 + stopn $end
$var wire 1 ! timer_done $end
$var wire 1 / zero $end
$var wire 7 0 sec_tens_segs [6:0] $end
$var wire 4 1 sec_tens [3:0] $end
$var wire 7 2 sec_ones_segs [6:0] $end
$var wire 4 3 sec_ones [3:0] $end
$var wire 1 4 pgt_1hz $end
$var wire 4 5 mins [3:0] $end
$var wire 7 6 min_segs [6:0] $end
$var wire 1 % mag $end
$var wire 1 7 loadn $end
$var wire 4 8 encoder_out [3:0] $end
$scope module c $end
$var wire 1 & clearn $end
$var wire 1 ( door_closed $end
$var wire 1 * startn $end
$var wire 1 + stopn $end
$var wire 1 / timer_done $end
$var wire 1 % mag $end
$var wire 1 9 S $end
$var wire 1 : R $end
$scope module SR $end
$var wire 1 9 S $end
$var wire 1 : R $end
$var reg 1 % mag $end
$upscope $end
$scope module controle $end
$var wire 1 & clearn $end
$var wire 1 ( door_closed $end
$var wire 1 * startn $end
$var wire 1 + stopn $end
$var wire 1 / timer_done $end
$var reg 1 : R $end
$var reg 1 9 S $end
$upscope $end
$upscope $end
$scope module d $end
$var wire 7 ; sec_tens_segs [6:0] $end
$var wire 4 < sec_tens [3:0] $end
$var wire 7 = sec_ones_segs [6:0] $end
$var wire 4 > sec_ones [3:0] $end
$var wire 7 ? min_segs [6:0] $end
$var wire 4 @ min [3:0] $end
$scope module min_module $end
$var wire 4 A bcd [3:0] $end
$var reg 7 B seven [6:0] $end
$upscope $end
$scope module sec_ones_module $end
$var wire 4 C bcd [3:0] $end
$var reg 7 D seven [6:0] $end
$upscope $end
$scope module sec_tens_module $end
$var wire 4 E bcd [3:0] $end
$var reg 7 F seven [6:0] $end
$upscope $end
$upscope $end
$scope module e $end
$var wire 1 ' Clk $end
$var wire 1 % Enablen $end
$var wire 10 G Keypad [9:0] $end
$var wire 1 H clk $end
$var wire 1 7 loadn $end
$var wire 1 4 pgt_1Hz $end
$var wire 1 I outFreq $end
$var wire 1 J outDebounce $end
$var wire 1 K DataValid $end
$var wire 4 L D [3:0] $end
$scope module DUT1 $end
$var wire 1 % enablen $end
$var wire 10 M keypad [9:0] $end
$var reg 4 N bcd [3:0] $end
$var reg 1 K data_valid $end
$upscope $end
$scope module Dut2 $end
$var wire 1 H clk $end
$var reg 1 I clkOut $end
$var reg 7 O cont [6:0] $end
$upscope $end
$scope module Dut3 $end
$var wire 1 K clear $end
$var wire 1 ' clock $end
$var reg 3 P cont [2:0] $end
$var reg 1 J out $end
$upscope $end
$scope module Dut4 $end
$var wire 1 J DelayIn $end
$var wire 1 I DivideBy100 $end
$var wire 1 % sel $end
$var wire 1 4 out $end
$upscope $end
$upscope $end
$scope module t $end
$var wire 1 4 clk $end
$var wire 1 - clrn $end
$var wire 4 Q data [3:0] $end
$var wire 1 % en $end
$var wire 1 7 loadn $end
$var wire 1 / zero $end
$var wire 1 R zero_tens $end
$var wire 1 S zero_ones $end
$var wire 1 T zero_mins $end
$var wire 1 U tc_tens $end
$var wire 1 V tc_ones $end
$var wire 1 W tc_mins $end
$var wire 4 X sec_tens [3:0] $end
$var wire 4 Y sec_ones [3:0] $end
$var wire 4 Z mins [3:0] $end
$scope module mins_module $end
$var wire 1 4 clk $end
$var wire 1 - clrn $end
$var wire 1 7 loadn $end
$var wire 1 W tc $end
$var wire 1 U en $end
$var wire 4 [ data [3:0] $end
$var reg 4 \ out [3:0] $end
$var reg 1 T zero $end
$upscope $end
$scope module sec_ones_module $end
$var wire 1 4 clk $end
$var wire 1 - clrn $end
$var wire 4 ] data [3:0] $end
$var wire 1 % en $end
$var wire 1 7 loadn $end
$var wire 1 V tc $end
$var reg 4 ^ out [3:0] $end
$var reg 1 S zero $end
$upscope $end
$scope module sec_tens_module $end
$var wire 1 4 clk $end
$var wire 1 - clrn $end
$var wire 4 _ data [3:0] $end
$var wire 1 V en $end
$var wire 1 7 loadn $end
$var wire 1 U tc $end
$var reg 4 ` out [3:0] $end
$var reg 1 R zero $end
$upscope $end
$upscope $end
$upscope $end
$upscope $end
$enddefinitions $end
#0
$dumpvars
bx `
bx _
bx ^
bx ]
bx \
bx [
bx Z
bx Y
bx X
xW
xV
xU
xT
xS
xR
bx Q
b0 P
b1 O
bx N
b0 M
bx L
1K
xJ
xI
zH
b0 G
bx F
bx E
bx D
bx C
bx B
bx A
bx @
bx ?
bx >
bx =
bx <
bx ;
0:
19
bx 8
17
bx 6
bx 5
x4
bx 3
bx 2
bx 1
bx 0
x/
b0 .
z-
b0 ,
1+
0*
b0 )
1(
0'
1&
1%
bx $
bx #
bx "
z!
$end
#10000000
b1 P
0J
07
0K
b1 )
b1 .
b1 G
b1 M
b1 ,
1'
#20000000
17
1K
b0 )
b0 .
b0 G
b0 M
b10 ,
0'
#30000000
b10 P
07
0K
b1000 )
b1000 .
b1000 G
b1000 M
b11 ,
1'
#40000000
17
1K
b0 )
b0 .
b0 G
b0 M
b100 ,
0'
#50000000
b11 P
07
0K
b10000 )
b10000 .
b10000 G
b10000 M
b101 ,
1'
#60000000
17
1K
b0 )
b0 .
b0 G
b0 M
b110 ,
0'
#70000000
b0 P
09
1*
b111 ,
1'
#80000000
b1000 ,
0'
#90000000
b1001 ,
1'
#100000000
b1010 ,
0'
#110000000
b1011 ,
1'
#120000000
b1100 ,
0'
#130000000
b1101 ,
1'
#140000000
b1110 ,
0'
#150000000
b1111 ,
1'
#160000000
b10000 ,
0'
#170000000
b10001 ,
1'
#180000000
b10010 ,
0'
#190000000
b10011 ,
1'
#200000000
b10100 ,
0'
#210000000
b10101 ,
1'
#220000000
b10110 ,
0'
#230000000
b10111 ,
1'
#240000000
b11000 ,
0'
#250000000
b11001 ,
1'
#260000000
b11010 ,
0'
#270000000
b11011 ,
1'
#280000000
b11100 ,
0'
#290000000
b11101 ,
1'
#300000000
b11110 ,
0'
#310000000
b11111 ,
1'
#320000000
b100000 ,
0'
#330000000
b100001 ,
1'
#340000000
b100010 ,
0'
#350000000
b100011 ,
1'
#360000000
b100100 ,
0'
#370000000
b100101 ,
1'
#380000000
b100110 ,
0'
#390000000
b100111 ,
1'
#400000000
b101000 ,
0'
#410000000
b101001 ,
1'
#420000000
b101010 ,
0'
#430000000
b101011 ,
1'
#440000000
b101100 ,
0'
#450000000
b101101 ,
1'
#460000000
b101110 ,
0'
#470000000
b101111 ,
1'
#480000000
b110000 ,
0'
#490000000
b110001 ,
1'
#500000000
b110010 ,
0'
#510000000
b110011 ,
1'
#520000000
b110100 ,
0'
#530000000
b110101 ,
1'
#540000000
b110110 ,
0'
#550000000
b110111 ,
1'
#560000000
b111000 ,
0'
#570000000
b111001 ,
1'
#580000000
b111010 ,
0'
#590000000
b111011 ,
1'
#600000000
b111100 ,
0'
#610000000
b111101 ,
1'
#620000000
b111110 ,
0'
#630000000
b111111 ,
1'
#640000000
b1000000 ,
0'
#650000000
b1000001 ,
1'
#660000000
b1000010 ,
0'
#670000000
b1000011 ,
1'
#680000000
b1000100 ,
0'
#690000000
b1000101 ,
1'
#700000000
b1000110 ,
0'
#710000000
b1000111 ,
1'
#720000000
b1001000 ,
0'
#730000000
b1001001 ,
1'
#740000000
b1001010 ,
0'
#750000000
b1001011 ,
1'
#760000000
b1001100 ,
0'
#770000000
b1001101 ,
1'
#780000000
b1001110 ,
0'
#790000000
b1001111 ,
1'
#800000000
b1010000 ,
0'
#810000000
b1010001 ,
1'
#820000000
b1010010 ,
0'
#830000000
b1010011 ,
1'
#840000000
b1010100 ,
0'
#850000000
b1010101 ,
1'
#860000000
b1010110 ,
0'
#870000000
b1010111 ,
1'
#880000000
b1011000 ,
0'
#890000000
b1011001 ,
1'
#900000000
b1011010 ,
0'
#910000000
b1011011 ,
1'
#920000000
b1011100 ,
0'
#930000000
b1011101 ,
1'
#940000000
b1011110 ,
0'
#950000000
b1011111 ,
1'
#960000000
b1100000 ,
0'
#970000000
b1100001 ,
1'
#980000000
b1100010 ,
0'
#990000000
b1100011 ,
1'
#1000000000
b1100100 ,
0'
#1010000000
b1100101 ,
1'
#1020000000
b1100110 ,
0'
#1030000000
b1100111 ,
1'
#1040000000
b1101000 ,
0'
#1050000000
b1101001 ,
1'
#1060000000
b1101010 ,
0'
#1070000000
b1101011 ,
1'
#1080000000
b1101100 ,
0'
#1090000000
b1101101 ,
1'
#1100000000
b1101110 ,
0'
#1110000000
b1101111 ,
1'
#1120000000
b1110000 ,
0'
#1130000000
b1110001 ,
1'
#1140000000
b1110010 ,
0'
#1150000000
b1110011 ,
1'
#1160000000
b1110100 ,
0'
#1170000000
b1110101 ,
1'
#1180000000
b1110110 ,
0'
#1190000000
b1110111 ,
1'
#1200000000
b1111000 ,
0'
#1210000000
b1111001 ,
1'
#1220000000
b1111010 ,
0'
#1230000000
b1111011 ,
1'
#1240000000
b1111100 ,
0'
#1250000000
b1111101 ,
1'
#1260000000
b1111110 ,
0'
#1270000000
b1111111 ,
1'
#1280000000
b10000000 ,
0'
#1290000000
b10000001 ,
1'
#1300000000
b10000010 ,
0'
#1310000000
b10000011 ,
1'
#1320000000
b10000100 ,
0'
#1330000000
b10000101 ,
1'
#1340000000
b10000110 ,
0'
#1350000000
b10000111 ,
1'
#1360000000
b10001000 ,
0'
#1370000000
b10001001 ,
1'
#1380000000
b10001010 ,
0'
#1390000000
b10001011 ,
1'
#1400000000
b10001100 ,
0'
#1410000000
b10001101 ,
1'
#1420000000
b10001110 ,
0'
#1430000000
b10001111 ,
1'
#1440000000
b10010000 ,
0'
#1450000000
b10010001 ,
1'
#1460000000
b10010010 ,
0'
#1470000000
b10010011 ,
1'
#1480000000
b10010100 ,
0'
#1490000000
b10010101 ,
1'
#1500000000
b10010110 ,
0'
#1510000000
b10010111 ,
1'
#1520000000
b10011000 ,
0'
#1530000000
b10011001 ,
1'
#1540000000
b10011010 ,
0'
#1550000000
b10011011 ,
1'
#1560000000
b10011100 ,
0'
#1570000000
b10011101 ,
1'
#1580000000
b10011110 ,
0'
#1590000000
b10011111 ,
1'
#1600000000
b10100000 ,
0'
#1610000000
b10100001 ,
1'
#1620000000
b10100010 ,
0'
#1630000000
b10100011 ,
1'
#1640000000
b10100100 ,
0'
#1650000000
b10100101 ,
1'
#1660000000
b10100110 ,
0'
#1670000000
b10100111 ,
1'
#1680000000
b10101000 ,
0'
#1690000000
b10101001 ,
1'
#1700000000
b10101010 ,
0'
#1710000000
b10101011 ,
1'
#1720000000
b10101100 ,
0'
#1730000000
b10101101 ,
1'
#1740000000
b10101110 ,
0'
#1750000000
b10101111 ,
1'
#1760000000
b10110000 ,
0'
#1770000000
b10110001 ,
1'
#1780000000
b10110010 ,
0'
#1790000000
b10110011 ,
1'
#1800000000
b10110100 ,
0'
#1810000000
b10110101 ,
1'
#1820000000
b10110110 ,
0'
#1830000000
b10110111 ,
1'
#1840000000
b10111000 ,
0'
#1850000000
b10111001 ,
1'
#1860000000
b10111010 ,
0'
#1870000000
b10111011 ,
1'
#1880000000
b10111100 ,
0'
#1890000000
b10111101 ,
1'
#1900000000
b10111110 ,
0'
#1910000000
b10111111 ,
1'
#1920000000
b11000000 ,
0'
#1930000000
b11000001 ,
1'
#1940000000
b11000010 ,
0'
#1950000000
b11000011 ,
1'
#1960000000
b11000100 ,
0'
#1970000000
b11000101 ,
1'
#1980000000
b11000110 ,
0'
#1990000000
b11000111 ,
1'
#2000000000
b11001000 ,
0'
#2010000000
b11001001 ,
1'
#2020000000
b11001010 ,
0'
#2030000000
b11001011 ,
1'
#2040000000
b11001100 ,
0'
#2050000000
b11001101 ,
1'
#2060000000
b11001110 ,
0'
#2070000000
b11001111 ,
1'
#2080000000
b11010000 ,
0'
#2090000000
b11010001 ,
1'
#2100000000
b11010010 ,
0'
#2110000000
b11010011 ,
1'
#2120000000
b11010100 ,
0'
#2130000000
b11010101 ,
1'
#2140000000
b11010110 ,
0'
#2150000000
b11010111 ,
1'
#2160000000
b11011000 ,
0'
#2170000000
b11011001 ,
1'
#2180000000
b11011010 ,
0'
#2190000000
b11011011 ,
1'
#2200000000
b11011100 ,
0'
#2210000000
b11011101 ,
1'
#2220000000
b11011110 ,
0'
#2230000000
b11011111 ,
1'
#2240000000
b11100000 ,
0'
#2250000000
b11100001 ,
1'
#2260000000
b11100010 ,
0'
#2270000000
b11100011 ,
1'
#2280000000
b11100100 ,
0'
#2290000000
b11100101 ,
1'
#2300000000
b11100110 ,
0'
#2310000000
b11100111 ,
1'
#2320000000
b11101000 ,
0'
#2330000000
b11101001 ,
1'
#2340000000
b11101010 ,
0'
#2350000000
b11101011 ,
1'
#2360000000
b11101100 ,
0'
#2370000000
b11101101 ,
1'
#2380000000
b11101110 ,
0'
#2390000000
b11101111 ,
1'
#2400000000
b11110000 ,
0'
#2410000000
b11110001 ,
1'
#2420000000
b11110010 ,
0'
#2430000000
b11110011 ,
1'
#2440000000
b11110100 ,
0'
#2450000000
b11110101 ,
1'
#2460000000
b11110110 ,
0'
#2470000000
b11110111 ,
1'
#2480000000
b11111000 ,
0'
#2490000000
b11111001 ,
1'
#2500000000
b11111010 ,
0'
#2510000000
b11111011 ,
1'
#2520000000
b11111100 ,
0'
#2530000000
b11111101 ,
1'
#2540000000
b11111110 ,
0'
#2550000000
b11111111 ,
1'
#2560000000
b100000000 ,
0'
#2570000000
b100000001 ,
1'
#2580000000
b100000010 ,
0'
#2590000000
b100000011 ,
1'
#2600000000
b100000100 ,
0'
#2610000000
b100000101 ,
1'
#2620000000
b100000110 ,
0'
#2630000000
b100000111 ,
1'
#2640000000
b100001000 ,
0'
#2650000000
b100001001 ,
1'
#2660000000
b100001010 ,
0'
#2670000000
b100001011 ,
1'
#2680000000
b100001100 ,
0'
#2690000000
b100001101 ,
1'
#2700000000
b100001110 ,
0'
#2710000000
b100001111 ,
1'
#2720000000
b100010000 ,
0'
#2730000000
b100010001 ,
1'
#2740000000
b100010010 ,
0'
#2750000000
b100010011 ,
1'
#2760000000
b100010100 ,
0'
#2770000000
b100010101 ,
1'
#2780000000
b100010110 ,
0'
#2790000000
b100010111 ,
1'
#2800000000
b100011000 ,
0'
#2810000000
b100011001 ,
1'
#2820000000
b100011010 ,
0'
#2830000000
b100011011 ,
1'
#2840000000
b100011100 ,
0'
#2850000000
b100011101 ,
1'
#2860000000
b100011110 ,
0'
#2870000000
b100011111 ,
1'
#2880000000
b100100000 ,
0'
#2890000000
b100100001 ,
1'
#2900000000
b100100010 ,
0'
#2910000000
b100100011 ,
1'
#2920000000
b100100100 ,
0'
#2930000000
b100100101 ,
1'
#2940000000
b100100110 ,
0'
#2950000000
b100100111 ,
1'
#2960000000
b100101000 ,
0'
#2970000000
b100101001 ,
1'
#2980000000
b100101010 ,
0'
#2990000000
b100101011 ,
1'
#3000000000
b100101100 ,
0'
