vcd/microwave.vcd
$date
	Fri Apr 30 02:14:28 2021
$end
$version
	Icarus Verilog
$end
$timescale
	1ns
$end
$scope module tb_microwave $end
$var wire 1 ! timer_done $end
$var wire 7 " tens [6:0] $end
$var wire 7 # ones [6:0] $end
$var wire 7 $ mins [6:0] $end
$var wire 1 % mag $end
$var reg 1 & clearn $end
$var reg 1 ' clk $end
$var reg 1 ( door_closed $end
$var reg 10 ) key [9:0] $end
$var reg 1 * startn $end
$var reg 1 + stopn $end
$var integer 32 , ticks [31:0] $end
$scope module m $end
$var wire 1 & clearn $end
$var wire 1 ' clk $end
$var wire 1 ( door_closed $end
$var wire 10 - keypad [9:0] $end
$var wire 1 * startn $end
$var wire 1 + stopn $end
$var wire 1 ! timer_done $end
$var wire 1 . zero $end
$var wire 7 / sec_tens_segs [6:0] $end
$var wire 4 0 sec_tens [3:0] $end
$var wire 7 1 sec_ones_segs [6:0] $end
$var wire 4 2 sec_ones [3:0] $end
$var wire 1 3 pgt_1hz $end
$var wire 4 4 mins [3:0] $end
$var wire 7 5 min_segs [6:0] $end
$var wire 1 % mag $end
$var wire 1 6 loadn $end
$var wire 4 7 encoder_out [3:0] $end
$scope module c $end
$var wire 1 & clearn $end
$var wire 1 ( door_closed $end
$var wire 1 * startn $end
$var wire 1 + stopn $end
$var wire 1 . timer_done $end
$var wire 1 % mag $end
$var wire 1 8 S $end
$var wire 1 9 R $end
$scope module SR $end
$var wire 1 8 S $end
$var wire 1 9 R $end
$var reg 1 % mag $end
$upscope $end
$scope module controle $end
$var wire 1 & clearn $end
$var wire 1 ( door_closed $end
$var wire 1 * startn $end
$var wire 1 + stopn $end
$var wire 1 . timer_done $end
$var reg 1 9 R $end
$var reg 1 8 S $end
$upscope $end
$upscope $end
$scope module d $end
$var wire 7 : sec_tens_segs [6:0] $end
$var wire 4 ; sec_tens [3:0] $end
$var wire 7 < sec_ones_segs [6:0] $end
$var wire 4 = sec_ones [3:0] $end
$var wire 7 > min_segs [6:0] $end
$var wire 4 ? min [3:0] $end
$scope module min_module $end
$var wire 4 @ bcd [3:0] $end
$var reg 7 A seven [6:0] $end
$upscope $end
$scope module sec_ones_module $end
$var wire 4 B bcd [3:0] $end
$var reg 7 C seven [6:0] $end
$upscope $end
$scope module sec_tens_module $end
$var wire 4 D bcd [3:0] $end
$var reg 7 E seven [6:0] $end
$upscope $end
$upscope $end
$scope module e $end
$var wire 1 ' Clk $end
$var wire 1 % Enablen $end
$var wire 10 F Keypad [9:0] $end
$var wire 1 6 loadn $end
$var wire 1 3 pgt_1Hz $end
$var wire 1 G outFreq $end
$var wire 1 H outDebounce $end
$var wire 1 I DataValid $end
$var wire 4 J D [3:0] $end
$scope module db $end
$var wire 1 ' clock $end
$var wire 1 I clear $end
$var reg 3 K cont [2:0] $end
$var reg 1 H out $end
$upscope $end
$scope module div100 $end
$var wire 1 ' clk $end
$var reg 1 G clkOut $end
$var reg 7 L cont [6:0] $end
$upscope $end
$scope module mux $end
$var wire 1 H DelayIn $end
$var wire 1 G DivideBy100 $end
$var wire 1 % sel $end
$var wire 1 3 out $end
$upscope $end
$scope module pencoder $end
$var wire 1 % enablen $end
$var wire 10 M keypad [9:0] $end
$var reg 4 N bcd [3:0] $end
$var reg 1 I data_valid $end
$upscope $end
$upscope $end
$scope module t $end
$var wire 1 3 clk $end
$var wire 1 & clrn $end
$var wire 4 O data [3:0] $end
$var wire 1 % en $end
$var wire 1 6 loadn $end
$var wire 1 . zero $end
$var wire 1 P zero_tens $end
$var wire 1 Q zero_ones $end
$var wire 1 R zero_mins $end
$var wire 1 S tc_tens $end
$var wire 1 T tc_ones $end
$var wire 1 U tc_mins $end
$var wire 4 V sec_tens [3:0] $end
$var wire 4 W sec_ones [3:0] $end
$var wire 4 X mins [3:0] $end
$scope module mins_module $end
$var wire 1 3 clk $end
$var wire 1 & clrn $end
$var wire 1 6 loadn $end
$var wire 1 U tc $end
$var wire 1 S en $end
$var wire 4 Y data [3:0] $end
$var reg 4 Z out [3:0] $end
$var reg 1 R zero $end
$upscope $end
$scope module sec_ones_module $end
$var wire 1 3 clk $end
$var wire 1 & clrn $end
$var wire 4 [ data [3:0] $end
$var wire 1 % en $end
$var wire 1 6 loadn $end
$var wire 1 T tc $end
$var reg 4 \ out [3:0] $end
$var reg 1 Q zero $end
$upscope $end
$scope module sec_tens_module $end
$var wire 1 3 clk $end
$var wire 1 & clrn $end
$var wire 4 ] data [3:0] $end
$var wire 1 T en $end
$var wire 1 6 loadn $end
$var wire 1 S tc $end
$var reg 4 ^ out [3:0] $end
$var reg 1 P zero $end
$upscope $end
$upscope $end
$upscope $end
$upscope $end
$enddefinitions $end
#0
$dumpvars
bx ^
bx ]
bx \
b0xxx [
bx Z
bx Y
bx X
bx W
bx V
0U
0T
0S
xR
xQ
xP
b0xxx O
b0xxx N
b0 M
b1 L
b0 K
b0xxx J
1I
xH
xG
b0 F
bx E
bx D
bx C
bx B
bx A
bx @
bx ?
bx >
bx =
bx <
bx ;
bx :
19
08
b0xxx 7
16
bx 5
bx 4
x3
bx 2
bx 1
bx 0
bx /
x.
b0 -
b0 ,
1+
1*
b0 )
1(
0'
1&
0%
bx $
bx #
bx "
z!
$end
#1000000
b111111 $
b111111 5
b111111 >
b111111 A
0.
b111111 "
b111111 /
b111111 :
b111111 E
b111111 #
b111111 1
b111111 <
b111111 C
0R
b0 4
b0 ?
b0 @
b0 X
b0 Z
0P
b0 0
b0 ;
b0 D
b0 V
b0 Y
b0 ^
0Q
b0 2
b0 =
b0 B
b0 W
b0 \
b0 ]
0&
#2000000
1&
#10000000
b110000 #
b110000 1
b110000 <
b110000 C
03
b1 K
b1 2
b1 =
b1 B
b1 W
b1 \
b1 ]
1P
1R
0H
b10 L
0G
06
0I
b1 7
b1 J
b1 N
b1 O
b1 [
b10 )
b10 -
b10 F
b10 M
b1 ,
1'
#20000000
16
1I
b0xxx 7
b0xxx J
b0xxx N
b0xxx O
b0xxx [
b0 )
b0 -
b0 F
b0 M
b10 ,
0'
#30000000
b1111011 #
b1111011 1
b1111011 <
b1111011 C
b110000 "
b110000 /
b110000 :
b110000 E
b1001 2
b1001 =
b1001 B
b1001 W
b1001 \
b1001 ]
0P
b1 0
b1 ;
b1 D
b1 V
b1 Y
b1 ^
b10 K
b11 L
06
0I
b1001 7
b1001 J
b1001 N
b1001 O
b1001 [
b1000000000 )
b1000000000 -
b1000000000 F
b1000000000 M
b11 ,
1'
#40000000
16
1I
b0xxx 7
b0xxx J
b0xxx N
b0xxx O
b0xxx [
b0 )
b0 -
b0 F
b0 M
b100 ,
0'
#50000000
b1111011 "
b1111011 /
b1111011 :
b1111011 E
b110000 $
b110000 5
b110000 >
b110000 A
b1001 0
b1001 ;
b1001 D
b1001 V
b1001 Y
b1001 ^
0R
b1 4
b1 ?
b1 @
b1 X
b1 Z
b11 K
b100 L
06
0I
b1001 7
b1001 J
b1001 N
b1001 O
b1001 [
b1000000000 )
b1000000000 -
b1000000000 F
b1000000000 M
b101 ,
1'
#60000000
16
1I
b0xxx 7
b0xxx J
b0xxx N
b0xxx O
b0xxx [
b0 )
b0 -
b0 F
b0 M
b110 ,
0'
#70000000
b0 K
b101 L
b111 ,
1'
#80000000
b1000 ,
0'
#90000000
b110 L
b1001 ,
1'
#100000000
b1010 ,
0'
#110000000
b111 L
b1011 ,
1'
#120000000
b1100 ,
0'
#130000000
b1000 L
b1101 ,
1'
#140000000
b1110 ,
0'
#150000000
b1001 L
b1111 ,
1'
#160000000
1%
09
18
b10000 ,
0'
0*
#170000000
b1010 L
b10001 ,
1'
#180000000
b10010 ,
0'
#190000000
b1011 L
b10011 ,
1'
#200000000
b10100 ,
0'
#210000000
b1100 L
b10101 ,
1'
#220000000
b10110 ,
0'
#230000000
b1101 L
b10111 ,
1'
#240000000
b11000 ,
0'
#250000000
b1110 L
b11001 ,
1'
#260000000
b11010 ,
0'
#270000000
b1111 L
b11011 ,
1'
#280000000
b11100 ,
0'
#290000000
b10000 L
b11101 ,
1'
#300000000
b11110 ,
0'
#310000000
b10001 L
b11111 ,
1'
#320000000
b100000 ,
0'
#330000000
b10010 L
b100001 ,
1'
#340000000
b100010 ,
0'
#350000000
b10011 L
b100011 ,
1'
#360000000
b100100 ,
0'
#370000000
b10100 L
b100101 ,
1'
#380000000
b100110 ,
0'
#390000000
b10101 L
b100111 ,
1'
#400000000
b101000 ,
0'
#410000000
b10110 L
b101001 ,
1'
#420000000
b101010 ,
0'
#430000000
b10111 L
b101011 ,
1'
#440000000
b101100 ,
0'
#450000000
b11000 L
b101101 ,
1'
#460000000
b101110 ,
0'
#470000000
b11001 L
b101111 ,
1'
#480000000
b110000 ,
0'
#490000000
b11010 L
b110001 ,
1'
#500000000
b110010 ,
0'
#510000000
b11011 L
b110011 ,
1'
#520000000
b110100 ,
0'
#530000000
b11100 L
b110101 ,
1'
#540000000
b110110 ,
0'
#550000000
b11101 L
b110111 ,
1'
#560000000
b111000 ,
0'
#570000000
b11110 L
b111001 ,
1'
#580000000
b111010 ,
0'
#590000000
b11111 L
b111011 ,
1'
#600000000
b111100 ,
0'
#610000000
b100000 L
b111101 ,
1'
#620000000
b111110 ,
0'
#630000000
b100001 L
b111111 ,
1'
#640000000
b1000000 ,
0'
#650000000
b100010 L
b1000001 ,
1'
#660000000
b1000010 ,
0'
#670000000
b100011 L
b1000011 ,
1'
#680000000
b1000100 ,
0'
#690000000
b100100 L
b1000101 ,
1'
#700000000
b1000110 ,
0'
#710000000
b100101 L
b1000111 ,
1'
#720000000
b1001000 ,
0'
#730000000
b100110 L
b1001001 ,
1'
#740000000
b1001010 ,
0'
#750000000
b100111 L
b1001011 ,
1'
#760000000
b1001100 ,
0'
#770000000
b101000 L
b1001101 ,
1'
#780000000
b1001110 ,
0'
#790000000
b101001 L
b1001111 ,
1'
#800000000
b1010000 ,
0'
#810000000
b101010 L
b1010001 ,
1'
#820000000
b1010010 ,
0'
#830000000
b101011 L
b1010011 ,
1'
#840000000
b1010100 ,
0'
#850000000
b101100 L
b1010101 ,
1'
#860000000
b1010110 ,
0'
#870000000
b101101 L
b1010111 ,
1'
#880000000
b1011000 ,
0'
#890000000
b101110 L
b1011001 ,
1'
#900000000
b1011010 ,
0'
#910000000
b101111 L
b1011011 ,
1'
#920000000
b1011100 ,
0'
#930000000
b110000 L
b1011101 ,
1'
#940000000
b1011110 ,
0'
#950000000
b110001 L
b1011111 ,
1'
#960000000
b1100000 ,
0'
#970000000
b110010 L
b1100001 ,
1'
#980000000
b1100010 ,
0'
#990000000
b1111111 #
b1111111 1
b1111111 <
b1111111 C
b1000 2
b1000 =
b1000 B
b1000 W
b1000 \
b1000 ]
13
1G
b1 L
b1100011 ,
1'
#1000000000
b1100100 ,
0'
#1010000000
03
b10 L
0G
b1100101 ,
1'
#1020000000
b1100110 ,
0'
#1030000000
b11 L
b1100111 ,
1'
#1040000000
b1101000 ,
0'
#1050000000
b100 L
b1101001 ,
1'
#1060000000
b1101010 ,
0'
#1070000000
b101 L
b1101011 ,
1'
#1080000000
b1101100 ,
0'
#1090000000
b110 L
b1101101 ,
1'
#1100000000
b1101110 ,
0'
#1110000000
b111 L
b1101111 ,
1'
#1120000000
b1110000 ,
0'
#1130000000
b1000 L
b1110001 ,
1'
#1140000000
b1110010 ,
0'
#1150000000
b1001 L
b1110011 ,
1'
#1160000000
b1110100 ,
0'
#1170000000
b1010 L
b1110101 ,
1'
#1180000000
b1110110 ,
0'
#1190000000
b1011 L
b1110111 ,
1'
#1200000000
b1111000 ,
0'
#1210000000
b1100 L
b1111001 ,
1'
#1220000000
b1111010 ,
0'
#1230000000
b1101 L
b1111011 ,
1'
#1240000000
b1111100 ,
0'
#1250000000
b1110 L
b1111101 ,
1'
#1260000000
b1111110 ,
0'
#1270000000
b1111 L
b1111111 ,
1'
#1280000000
b10000000 ,
0'
#1290000000
b10000 L
b10000001 ,
1'
#1300000000
b10000010 ,
0'
#1310000000
b10001 L
b10000011 ,
1'
#1320000000
b10000100 ,
0'
#1330000000
b10010 L
b10000101 ,
1'
#1340000000
b10000110 ,
0'
#1350000000
b10011 L
b10000111 ,
1'
#1360000000
b10001000 ,
0'
#1370000000
b10100 L
b10001001 ,
1'
#1380000000
b10001010 ,
0'
#1390000000
b10101 L
b10001011 ,
1'
#1400000000
b10001100 ,
0'
#1410000000
b10110 L
b10001101 ,
1'
#1420000000
b10001110 ,
0'
#1430000000
b10111 L
b10001111 ,
1'
#1440000000
b10010000 ,
0'
#1450000000
b11000 L
b10010001 ,
1'
#1460000000
b10010010 ,
0'
#1470000000
b11001 L
b10010011 ,
1'
#1480000000
b10010100 ,
0'
#1490000000
b11010 L
b10010101 ,
1'
#1500000000
b10010110 ,
0'
#1510000000
b11011 L
b10010111 ,
1'
#1520000000
b10011000 ,
0'
#1530000000
b11100 L
b10011001 ,
1'
#1540000000
b10011010 ,
0'
#1550000000
b11101 L
b10011011 ,
1'
#1560000000
b10011100 ,
0'
#1570000000
b11110 L
b10011101 ,
1'
#1580000000
b10011110 ,
0'
#1590000000
b11111 L
b10011111 ,
1'
#1600000000
b10100000 ,
0'
#1610000000
b100000 L
b10100001 ,
1'
#1620000000
b10100010 ,
0'
#1630000000
b100001 L
b10100011 ,
1'
#1640000000
b10100100 ,
0'
#1650000000
b100010 L
b10100101 ,
1'
#1660000000
b10100110 ,
0'
#1670000000
b100011 L
b10100111 ,
1'
#1680000000
b10101000 ,
0'
#1690000000
b100100 L
b10101001 ,
1'
#1700000000
b10101010 ,
0'
#1710000000
b100101 L
b10101011 ,
1'
#1720000000
b10101100 ,
0'
#1730000000
b100110 L
b10101101 ,
1'
#1740000000
b10101110 ,
0'
#1750000000
b100111 L
b10101111 ,
1'
#1760000000
b10110000 ,
0'
#1770000000
b101000 L
b10110001 ,
1'
#1780000000
b10110010 ,
0'
#1790000000
b101001 L
b10110011 ,
1'
#1800000000
b10110100 ,
0'
#1810000000
b101010 L
b10110101 ,
1'
#1820000000
b10110110 ,
0'
#1830000000
b101011 L
b10110111 ,
1'
#1840000000
b10111000 ,
0'
#1850000000
b101100 L
b10111001 ,
1'
#1860000000
b10111010 ,
0'
#1870000000
b101101 L
b10111011 ,
1'
#1880000000
b10111100 ,
0'
#1890000000
b101110 L
b10111101 ,
1'
#1900000000
b10111110 ,
0'
#1910000000
b101111 L
b10111111 ,
1'
#1920000000
b11000000 ,
0'
#1930000000
b110000 L
b11000001 ,
1'
#1940000000
b11000010 ,
0'
#1950000000
b110001 L
b11000011 ,
1'
#1960000000
b11000100 ,
0'
#1970000000
b110010 L
b11000101 ,
1'
#1980000000
b11000110 ,
0'
#1990000000
0T
b1110000 #
b1110000 1
b1110000 <
b1110000 C
b111 2
b111 =
b111 B
b111 W
b111 \
b111 ]
13
1G
b1 L
b11000111 ,
1'
#2000000000
b11001000 ,
0'
#2010000000
03
b10 L
0G
b11001001 ,
1'
#2020000000
b11001010 ,
0'
#2030000000
b11 L
b11001011 ,
1'
#2040000000
b11001100 ,
0'
#2050000000
b100 L
b11001101 ,
1'
#2060000000
b11001110 ,
0'
#2070000000
b101 L
b11001111 ,
1'
#2080000000
b11010000 ,
0'
#2090000000
b110 L
b11010001 ,
1'
#2100000000
b11010010 ,
0'
#2110000000
b111 L
b11010011 ,
1'
#2120000000
b11010100 ,
0'
#2130000000
b1000 L
b11010101 ,
1'
#2140000000
b11010110 ,
0'
#2150000000
b1001 L
b11010111 ,
1'
#2160000000
b11011000 ,
0'
#2170000000
b1010 L
b11011001 ,
1'
#2180000000
b11011010 ,
0'
#2190000000
b1011 L
b11011011 ,
1'
#2200000000
b11011100 ,
0'
#2210000000
b1100 L
b11011101 ,
1'
#2220000000
b11011110 ,
0'
#2230000000
b1101 L
b11011111 ,
1'
#2240000000
b11100000 ,
0'
#2250000000
b1110 L
b11100001 ,
1'
#2260000000
b11100010 ,
0'
#2270000000
b1111 L
b11100011 ,
1'
#2280000000
b11100100 ,
0'
#2290000000
b10000 L
b11100101 ,
1'
#2300000000
b11100110 ,
0'
#2310000000
b10001 L
b11100111 ,
1'
#2320000000
b11101000 ,
0'
#2330000000
b10010 L
b11101001 ,
1'
#2340000000
b11101010 ,
0'
#2350000000
b10011 L
b11101011 ,
1'
#2360000000
b11101100 ,
0'
#2370000000
b10100 L
b11101101 ,
1'
#2380000000
b11101110 ,
0'
#2390000000
b10101 L
b11101111 ,
1'
#2400000000
b11110000 ,
0'
#2410000000
b10110 L
b11110001 ,
1'
#2420000000
b11110010 ,
0'
#2430000000
b10111 L
b11110011 ,
1'
#2440000000
b11110100 ,
0'
#2450000000
b11000 L
b11110101 ,
1'
#2460000000
b11110110 ,
0'
#2470000000
b11001 L
b11110111 ,
1'
#2480000000
b11111000 ,
0'
#2490000000
b11010 L
b11111001 ,
1'
#2500000000
b11111010 ,
0'
#2510000000
b11011 L
b11111011 ,
1'
#2520000000
b11111100 ,
0'
#2530000000
b11100 L
b11111101 ,
1'
#2540000000
b11111110 ,
0'
#2550000000
b11101 L
b11111111 ,
1'
#2560000000
b100000000 ,
0'
#2570000000
b11110 L
b100000001 ,
1'
#2580000000
b100000010 ,
0'
#2590000000
b11111 L
b100000011 ,
1'
#2600000000
b100000100 ,
0'
#2610000000
b100000 L
b100000101 ,
1'
#2620000000
b100000110 ,
0'
#2630000000
b100001 L
b100000111 ,
1'
#2640000000
b100001000 ,
0'
#2650000000
b100010 L
b100001001 ,
1'
#2660000000
b100001010 ,
0'
#2670000000
b100011 L
b100001011 ,
1'
#2680000000
b100001100 ,
0'
#2690000000
b100100 L
b100001101 ,
1'
#2700000000
b100001110 ,
0'
#2710000000
b100101 L
b100001111 ,
1'
#2720000000
b100010000 ,
0'
#2730000000
b100110 L
b100010001 ,
1'
#2740000000
b100010010 ,
0'
#2750000000
b100111 L
b100010011 ,
1'
#2760000000
b100010100 ,
0'
#2770000000
b101000 L
b100010101 ,
1'
#2780000000
b100010110 ,
0'
#2790000000
b101001 L
b100010111 ,
1'
#2800000000
b100011000 ,
0'
#2810000000
b101010 L
b100011001 ,
1'
#2820000000
b100011010 ,
0'
#2830000000
b101011 L
b100011011 ,
1'
#2840000000
b100011100 ,
0'
#2850000000
b101100 L
b100011101 ,
1'
#2860000000
b100011110 ,
0'
#2870000000
b101101 L
b100011111 ,
1'
#2880000000
b100100000 ,
0'
#2890000000
b101110 L
b100100001 ,
1'
#2900000000
b100100010 ,
0'
#2910000000
b101111 L
b100100011 ,
1'
#2920000000
b100100100 ,
0'
#2930000000
b110000 L
b100100101 ,
1'
#2940000000
b100100110 ,
0'
#2950000000
b110001 L
b100100111 ,
1'
#2960000000
b100101000 ,
0'
#2970000000
b110010 L
b100101001 ,
1'
#2980000000
b100101010 ,
0'
#2990000000
b1011111 #
b1011111 1
b1011111 <
b1011111 C
b110 2
b110 =
b110 B
b110 W
b110 \
b110 ]
13
1G
b1 L
b100101011 ,
1'
#3000000000
b100101100 ,
0'
#3010000000
03
b10 L
0G
b100101101 ,
1'
#3020000000
b100101110 ,
0'
#3030000000
b11 L
b100101111 ,
1'
#3040000000
b100110000 ,
0'
#3050000000
b100 L
b100110001 ,
1'
#3060000000
b100110010 ,
0'
#3070000000
b101 L
b100110011 ,
1'
#3080000000
b100110100 ,
0'
#3090000000
b110 L
b100110101 ,
1'
#3100000000
b100110110 ,
0'
#3110000000
b111 L
b100110111 ,
1'
#3120000000
b100111000 ,
0'
#3130000000
b1000 L
b100111001 ,
1'
#3140000000
b100111010 ,
0'
#3150000000
b1001 L
b100111011 ,
1'
#3160000000
b100111100 ,
0'
#3170000000
b1010 L
b100111101 ,
1'
#3180000000
b100111110 ,
0'
#3190000000
b1011 L
b100111111 ,
1'
#3200000000
b101000000 ,
0'
#3210000000
b1100 L
b101000001 ,
1'
#3220000000
b101000010 ,
0'
#3230000000
b1101 L
b101000011 ,
1'
#3240000000
b101000100 ,
0'
#3250000000
b1110 L
b101000101 ,
1'
#3260000000
b101000110 ,
0'
#3270000000
b1111 L
b101000111 ,
1'
#3280000000
b101001000 ,
0'
#3290000000
b10000 L
b101001001 ,
1'
#3300000000
b101001010 ,
0'
#3310000000
b10001 L
b101001011 ,
1'
#3320000000
b101001100 ,
0'
#3330000000
b10010 L
b101001101 ,
1'
#3340000000
b101001110 ,
0'
#3350000000
b10011 L
b101001111 ,
1'
#3360000000
b101010000 ,
0'
#3370000000
b10100 L
b101010001 ,
1'
#3380000000
b101010010 ,
0'
#3390000000
b10101 L
b101010011 ,
1'
#3400000000
b101010100 ,
0'
#3410000000
b10110 L
b101010101 ,
1'
#3420000000
b101010110 ,
0'
#3430000000
b10111 L
b101010111 ,
1'
#3440000000
b101011000 ,
0'
#3450000000
b11000 L
b101011001 ,
1'
#3460000000
b101011010 ,
0'
#3470000000
b11001 L
b101011011 ,
1'
#3480000000
b101011100 ,
0'
#3490000000
b11010 L
b101011101 ,
1'
#3500000000
b101011110 ,
0'
#3510000000
b11011 L
b101011111 ,
1'
#3520000000
b101100000 ,
0'
#3530000000
b11100 L
b101100001 ,
1'
#3540000000
b101100010 ,
0'
#3550000000
b11101 L
b101100011 ,
1'
#3560000000
b101100100 ,
0'
#3570000000
b11110 L
b101100101 ,
1'
#3580000000
b101100110 ,
0'
#3590000000
b11111 L
b101100111 ,
1'
#3600000000
b101101000 ,
0'
#3610000000
b100000 L
b101101001 ,
1'
#3620000000
b101101010 ,
0'
#3630000000
b100001 L
b101101011 ,
1'
#3640000000
b101101100 ,
0'
#3650000000
b100010 L
b101101101 ,
1'
#3660000000
b101101110 ,
0'
#3670000000
b100011 L
b101101111 ,
1'
#3680000000
b101110000 ,
0'
#3690000000
b100100 L
b101110001 ,
1'
#3700000000
b101110010 ,
0'
#3710000000
b100101 L
b101110011 ,
1'
#3720000000
b101110100 ,
0'
#3730000000
b100110 L
b101110101 ,
1'
#3740000000
b101110110 ,
0'
#3750000000
b100111 L
b101110111 ,
1'
#3760000000
b101111000 ,
0'
#3770000000
b101000 L
b101111001 ,
1'
#3780000000
b101111010 ,
0'
#3790000000
b101001 L
b101111011 ,
1'
#3800000000
b101111100 ,
0'
#3810000000
b101010 L
b101111101 ,
1'
#3820000000
b101111110 ,
0'
#3830000000
b101011 L
b101111111 ,
1'
#3840000000
b110000000 ,
0'
#3850000000
b101100 L
b110000001 ,
1'
#3860000000
b110000010 ,
0'
#3870000000
b101101 L
b110000011 ,
1'
#3880000000
b110000100 ,
0'
#3890000000
b101110 L
b110000101 ,
1'
#3900000000
b110000110 ,
0'
#3910000000
b101111 L
b110000111 ,
1'
#3920000000
b110001000 ,
0'
#3930000000
b110000 L
b110001001 ,
1'
#3940000000
b110001010 ,
0'
#3950000000
b110001 L
b110001011 ,
1'
#3960000000
b110001100 ,
0'
#3970000000
b110010 L
b110001101 ,
1'
#3980000000
b110001110 ,
0'
#3990000000
b1011011 #
b1011011 1
b1011011 <
b1011011 C
b101 2
b101 =
b101 B
b101 W
b101 \
b101 ]
13
1G
b1 L
b110001111 ,
1'
#4000000000
b110010000 ,
0'
#4010000000
03
b10 L
0G
b110010001 ,
1'
#4020000000
b110010010 ,
0'
#4030000000
b11 L
b110010011 ,
1'
#4040000000
b110010100 ,
0'
#4050000000
b100 L
b110010101 ,
1'
#4060000000
b110010110 ,
0'
#4070000000
b101 L
b110010111 ,
1'
#4080000000
b110011000 ,
0'
#4090000000
b110 L
b110011001 ,
1'
#4100000000
b110011010 ,
0'
#4110000000
b111 L
b110011011 ,
1'
#4120000000
b110011100 ,
0'
#4130000000
b1000 L
b110011101 ,
1'
#4140000000
b110011110 ,
0'
#4150000000
b1001 L
b110011111 ,
1'
#4160000000
b110100000 ,
0'
#4170000000
b1010 L
b110100001 ,
1'
#4180000000
b110100010 ,
0'
#4190000000
b1011 L
b110100011 ,
1'
#4200000000
b110100100 ,
0'
#4210000000
b1100 L
b110100101 ,
1'
#4220000000
b110100110 ,
0'
#4230000000
b1101 L
b110100111 ,
1'
#4240000000
b110101000 ,
0'
#4250000000
b1110 L
b110101001 ,
1'
#4260000000
b110101010 ,
0'
#4270000000
b1111 L
b110101011 ,
1'
#4280000000
b110101100 ,
0'
#4290000000
b10000 L
b110101101 ,
1'
#4300000000
b110101110 ,
0'
#4310000000
b10001 L
b110101111 ,
1'
#4320000000
b110110000 ,
0'
#4330000000
b10010 L
b110110001 ,
1'
#4340000000
b110110010 ,
0'
#4350000000
b10011 L
b110110011 ,
1'
#4360000000
b110110100 ,
0'
#4370000000
b10100 L
b110110101 ,
1'
#4380000000
b110110110 ,
0'
#4390000000
b10101 L
b110110111 ,
1'
#4400000000
b110111000 ,
0'
#4410000000
b10110 L
b110111001 ,
1'
#4420000000
b110111010 ,
0'
#4430000000
b10111 L
b110111011 ,
1'
#4440000000
b110111100 ,
0'
#4450000000
b11000 L
b110111101 ,
1'
#4460000000
b110111110 ,
0'
#4470000000
b11001 L
b110111111 ,
1'
#4480000000
b111000000 ,
0'
#4490000000
b11010 L
b111000001 ,
1'
#4500000000
b111000010 ,
0'
#4510000000
b11011 L
b111000011 ,
1'
#4520000000
b111000100 ,
0'
#4530000000
b11100 L
b111000101 ,
1'
#4540000000
b111000110 ,
0'
#4550000000
b11101 L
b111000111 ,
1'
#4560000000
b111001000 ,
0'
#4570000000
b11110 L
b111001001 ,
1'
#4580000000
b111001010 ,
0'
#4590000000
b11111 L
b111001011 ,
1'
#4600000000
b111001100 ,
0'
#4610000000
b100000 L
b111001101 ,
1'
#4620000000
b111001110 ,
0'
#4630000000
b100001 L
b111001111 ,
1'
#4640000000
b111010000 ,
0'
#4650000000
b100010 L
b111010001 ,
1'
#4660000000
b111010010 ,
0'
#4670000000
b100011 L
b111010011 ,
1'
#4680000000
b111010100 ,
0'
#4690000000
b100100 L
b111010101 ,
1'
#4700000000
b111010110 ,
0'
#4710000000
b100101 L
b111010111 ,
1'
#4720000000
b111011000 ,
0'
#4730000000
b100110 L
b111011001 ,
1'
#4740000000
b111011010 ,
0'
#4750000000
b100111 L
b111011011 ,
1'
#4760000000
b111011100 ,
0'
#4770000000
b101000 L
b111011101 ,
1'
#4780000000
b111011110 ,
0'
#4790000000
b101001 L
b111011111 ,
1'
#4800000000
b111100000 ,
0'
#4810000000
b101010 L
b111100001 ,
1'
#4820000000
b111100010 ,
0'
#4830000000
b101011 L
b111100011 ,
1'
#4840000000
b111100100 ,
0'
#4850000000
b101100 L
b111100101 ,
1'
#4860000000
b111100110 ,
0'
#4870000000
b101101 L
b111100111 ,
1'
#4880000000
b111101000 ,
0'
#4890000000
b101110 L
b111101001 ,
1'
#4900000000
b111101010 ,
0'
#4910000000
b101111 L
b111101011 ,
1'
#4920000000
b111101100 ,
0'
#4930000000
b110000 L
b111101101 ,
1'
#4940000000
b111101110 ,
0'
#4950000000
b110001 L
b111101111 ,
1'
#4960000000
b111110000 ,
0'
#4970000000
b110010 L
b111110001 ,
1'
#4980000000
b111110010 ,
0'
#4990000000
b110011 #
b110011 1
b110011 <
b110011 C
b100 2
b100 =
b100 B
b100 W
b100 \
b100 ]
13
1G
b1 L
b111110011 ,
1'
#5000000000
b111110100 ,
0'
#5010000000
03
b10 L
0G
b111110101 ,
1'
#5020000000
b111110110 ,
0'
#5030000000
b11 L
b111110111 ,
1'
#5040000000
b111111000 ,
0'
#5050000000
b100 L
b111111001 ,
1'
#5060000000
b111111010 ,
0'
#5070000000
b101 L
b111111011 ,
1'
#5080000000
b111111100 ,
0'
#5090000000
b110 L
b111111101 ,
1'
#5100000000
b111111110 ,
0'
#5110000000
b111 L
b111111111 ,
1'
#5120000000
b1000000000 ,
0'
#5130000000
b1000 L
b1000000001 ,
1'
#5140000000
b1000000010 ,
0'
#5150000000
b1001 L
b1000000011 ,
1'
#5160000000
b1000000100 ,
0'
#5170000000
b1010 L
b1000000101 ,
1'
#5180000000
b1000000110 ,
0'
#5190000000
b1011 L
b1000000111 ,
1'
#5200000000
b1000001000 ,
0'
#5210000000
b1100 L
b1000001001 ,
1'
#5220000000
b1000001010 ,
0'
#5230000000
b1101 L
b1000001011 ,
1'
#5240000000
b1000001100 ,
0'
#5250000000
b1110 L
b1000001101 ,
1'
#5260000000
b1000001110 ,
0'
#5270000000
b1111 L
b1000001111 ,
1'
#5280000000
b1000010000 ,
0'
#5290000000
b10000 L
b1000010001 ,
1'
#5300000000
b1000010010 ,
0'
#5310000000
b10001 L
b1000010011 ,
1'
#5320000000
b1000010100 ,
0'
#5330000000
b10010 L
b1000010101 ,
1'
#5340000000
b1000010110 ,
0'
#5350000000
b10011 L
b1000010111 ,
1'
#5360000000
b1000011000 ,
0'
#5370000000
b10100 L
b1000011001 ,
1'
#5380000000
b1000011010 ,
0'
#5390000000
b10101 L
b1000011011 ,
1'
#5400000000
b1000011100 ,
0'
#5410000000
b10110 L
b1000011101 ,
1'
#5420000000
b1000011110 ,
0'
#5430000000
b10111 L
b1000011111 ,
1'
#5440000000
b1000100000 ,
0'
#5450000000
b11000 L
b1000100001 ,
1'
#5460000000
b1000100010 ,
0'
#5470000000
b11001 L
b1000100011 ,
1'
#5480000000
b1000100100 ,
0'
#5490000000
b11010 L
b1000100101 ,
1'
#5500000000
b1000100110 ,
0'
#5510000000
b11011 L
b1000100111 ,
1'
#5520000000
b1000101000 ,
0'
#5530000000
b11100 L
b1000101001 ,
1'
#5540000000
b1000101010 ,
0'
#5550000000
b11101 L
b1000101011 ,
1'
#5560000000
b1000101100 ,
0'
#5570000000
b11110 L
b1000101101 ,
1'
#5580000000
b1000101110 ,
0'
#5590000000
b11111 L
b1000101111 ,
1'
#5600000000
b1000110000 ,
0'
#5610000000
b100000 L
b1000110001 ,
1'
#5620000000
b1000110010 ,
0'
#5630000000
b100001 L
b1000110011 ,
1'
